Analise IMDB
…
Realizei uma anlise da mdia das notas entre os melhores atores relacionados a filmes com notas acima de 8:

## # A tibble: 640 x 4
## # Groups:   ator, nota_imdb [640]
##    ator           nota_imdb data             media_das_notas
##    <chr>              <dbl> <list>                     <dbl>
##  1 Morgan Freeman       9.3 <tibble [1  0]>             9.3
##  2 Jeffrey DeMunn       9.3 <tibble [1  0]>             9.3
##  3 Bob Gunton           9.3 <tibble [1  0]>             9.3
##  4 Al Pacino            9.2 <tibble [1  0]>             9.2
##  5 Marlon Brando        9.2 <tibble [1  0]>             9.2
##  6 Robert Duvall        9.2 <tibble [1  0]>             9.2
##  7 Matthew Ziff         9.1 <tibble [1  0]>             9.1
##  8 T.J. Storm           9.1 <tibble [1  0]>             9.1
##  9 Sam Medina           9.1 <tibble [1  0]>             9.1
## 10 Christian Bale       9   <tibble [1  0]>             9  
## #  with 630 more rows
…
